-------------------------------------------------------------------------------
Test set: com.ilabservice.video.eurekaServer.EurekaServerApplicationTests
-------------------------------------------------------------------------------
Tests run: 1, Failures: 0, Errors: 0, Skipped: 0, Time elapsed: 6.911 s - in com.ilabservice.video.eurekaServer.EurekaServerApplicationTests
